<svg version="1.1" id="Layer_1" xmlns="http://www.w3.org/2000/svg" xmlns:xlink="http://www.w3.org/1999/xlink" x="0px" y="0px"
	 viewBox="0 0 512.01 512.01" style="enable-background:new 0 0 512.01 512.01;" xml:space="preserve">
<path style="fill:#90BAE1;" d="M324.322,226.551c56.869-37.733,72.386-114.418,34.653-171.287S244.557-17.114,187.688,20.62
	s-72.386,114.418-34.653,171.287c9.118,13.752,20.901,25.526,34.653,34.653c-60.418,26.947-99.342,86.897-99.387,153.052V512.01
	h335.408V379.612C423.665,313.448,384.74,253.507,324.322,226.551z"/>
<path style="fill:#B0D3F0;" d="M379.576,123.634c0,68.247-55.325,123.571-123.571,123.571s-123.571-55.325-123.571-123.571
	S187.758,0.063,256.005,0.063S379.576,55.387,379.576,123.634z"/>
</svg>
